EDS241: Assignment 2
…
The estimated coefficient on tobacco is -228.073 and the standar error is 4.277.

Use the exact matching estimator to estimate the effect of maternal smoking on birth weight. For simplicity, consider the following covariates in your matching estimator: create a 0-1 indicator for mother’s age (= 1 if mage> = 34), and a 0-1 indicator for mother’s education (1 if meduc> = 16), mother’s race (mblack), and alcohol consumption indicator (alcohol). These 4 covariates will create 2 * 2 * 2 * 2 = 16 cells. Report the estimated average treatment effect of smoking on birthweight using the exact matching estimator and its linear regression analogue.

df_matching <- df_smoking |> 
  mutate(mage_i = case_when(mage >= 34 ~ 1,
                          TRUE ~ 0)) |> 
  mutate(meduc_i = case_when(meduc >= 16 ~ 1,
                           TRUE ~0)) |> 
  select(birthwgt,tobacco, alcohol, mblack, mage_i, meduc_i)

df_matching

# A tibble: 94,173 × 6
   birthwgt tobacco alcohol mblack mage_i meduc_i
      <dbl>   <dbl>   <dbl>  <dbl>  <dbl>   <dbl>
 1     4129       0       0      0      0       1
 2     3638       0       0      0      0       0
 3     3694       0       0      0      0       0
 4     3799       0       0      0      0       0
 5     3175       0       0      0      1       0
 6     2892       0       0      0      0       0
 7     3572       0       0      0      0       0
 8     3232       0       0      0      0       0
 9     3572       0       0      0      0       0
10     2820       0       0      1      1       0
# … with 94,163 more rows
…
